<svg width="18" height="18" viewBox="0 0 18 18" fill="none" xmlns="http://www.w3.org/2000/svg">
<path d="M16.875 3.9375L14.0625 1.125L2.8125 12.375L1.6875 16.3125L5.625 15.1875L16.875 3.9375ZM11.8125 3.375L14.625 6.1875L11.8125 3.375ZM2.8125 12.375L5.625 15.1875L2.8125 12.375Z" stroke="white" stroke-linecap="round" stroke-linejoin="round"/>
</svg>
